{
  "type": "minecraft:crafting_shapeless",
  "ingredients": [
      {
          "item": "minecraft:lava_bucket"
      },
      {
          "item": "dyeablenetherite:netherite_chestplate"
      }
  ],
  "result": {
      "item": "minecraft:netherite_chestplate",
      "count": 1
  }
}